<?xml version="1.0" encoding="UTF-8"?>
<svg width="1920px" height="960px" viewBox="0 0 1920 960" version="1.1" xmlns="http://www.w3.org/2000/svg" xmlns:xlink="http://www.w3.org/1999/xlink">
    <!-- Generator: Sketch 58 (84663) - https://sketch.com -->
    <title>Group</title>
    <desc>Created with Sketch.</desc>
    <g id="Page-1" stroke="none" stroke-width="1" fill="none" fill-rule="evenodd">
        <g id="index-1.1(with-menu)" transform="translate(0.000000, -960.000000)">
            <g id="Group" transform="translate(0.000000, 960.000000)">
                <rect id="Rectangle-Copy-18" fill="#F8D100" x="0" y="0" width="1920" height="137"></rect>
                <rect id="Rectangle-Copy-19" fill="#DEA301" x="0" y="137" width="1920" height="137"></rect>
                <rect id="Rectangle-Copy-20" fill="#37B75F" x="0" y="274" width="1920" height="137"></rect>
                <rect id="Rectangle-Copy-21" fill="#00A196" x="0" y="411" width="1920" height="137"></rect>
                <rect id="Rectangle-Copy-22" fill="#596FB1" x="0" y="548" width="1920" height="137"></rect>
                <rect id="Rectangle-Copy-23" fill="#674782" x="0" y="685" width="1920" height="137"></rect>
                <rect id="Rectangle-Copy-24" fill="#4B2673" x="0" y="822" width="1920" height="138"></rect>
            </g>
        </g>
    </g>
</svg>